…
---
# Ordenar casos

#### `arrange(.data, ...)` | `desc()`

- La función `arrange()` sirve para ordenar los datos según el criterio de una o varias variables de forma ascendente

- Para ordenar por una o más variables de forma descendente, el nombre de la variable debe ser pasado por la función `desc()`.

```r
arrange(.data = gss_cat, age, desc(tvhours))
```

```
## # A tibble: 21,483 x 9
##     year marital     age race  rincome   partyid    relig   denom   tvhours
##    <int> <fct>     <int> <fct> <fct>     <fct>      <fct>   <fct>     <int>
##  1  2010 Never ma…    18 Black Refused   Independe… Moslem… Not ap…      13
##  2  2006 Never ma…    18 Black Lt $1000  Ind,near … Protes… Baptis…       7
##  3  2010 Never ma…    18 Black Not appl… Not str r… Protes… Other         5
##  4  2010 Never ma…    18 White Don't kn… Not str d… Cathol… Not ap…       5
##  5  2012 Never ma…    18 Other Not appl… Independe… Cathol… Not ap…       5
##  6  2014 Never ma…    18 White Not appl… Other par… None    Not ap…       5
##  7  2000 Never ma…    18 White Don't kn… Independe… Cathol… Not ap…       4
##  8  2008 Never ma…    18 White Not appl… Strong re… None    Not ap…       4
##  9  2012 Never ma…    18 White $10000 -… Not str d… Protes… Other         4
## 10  2014 Never ma…    18 Black Not appl… Ind,near … Protes… Baptis…       4
## # … with 21,473 more rows
```
…
